<svg width="369" height="96" viewBox="0 0 369 96" fill="none" xmlns="http://www.w3.org/2000/svg">
<path d="M209 48C209 44.2 209.7 40.6667 211.1 37.4C212.567 34.0667 214.533 31.2 217 28.8C219.533 26.3333 222.5 24.4 225.9 23C229.3 21.6 232.933 20.9 236.8 20.9C240.667 20.9 244.3 21.6 247.7 23C251.1 24.4 254.033 26.3333 256.5 28.8C259.033 31.2 261 34.0667 262.4 37.4C263.867 40.6667 264.6 44.2 264.6 48C264.6 51.8 263.867 55.3667 262.4 58.7C261 61.9667 259.033 64.8 256.5 67.2C254.033 69.6 251.1 71.5 247.7 72.9C244.3 74.3 240.667 75 236.8 75C232.933 75 229.3 74.3 225.9 72.9C222.5 71.5 219.533 69.6 217 67.2C214.533 64.8 212.567 61.9667 211.1 58.7C209.7 55.3667 209 51.8 209 48ZM236.8 63.1C240.8 63.1 244.2 61.6333 247 58.7C249.8 55.7667 251.2 52.2 251.2 48C251.2 43.7333 249.8 40.1333 247 37.2C244.2 34.2667 240.8 32.8 236.8 32.8C232.8 32.8 229.4 34.2667 226.6 37.2C223.8 40.1333 222.4 43.7333 222.4 48C222.4 52.2 223.8 55.7667 226.6 58.7C229.4 61.6333 232.8 63.1 236.8 63.1Z" fill="white"/>
<path d="M279.821 15.7C277.688 15.7 275.854 14.9333 274.321 13.4C272.788 11.8667 272.021 10.0333 272.021 7.90001C272.021 5.76667 272.788 3.93334 274.321 2.40001C275.854 0.866673 277.688 0.100006 279.821 0.100006C281.954 0.100006 283.788 0.866673 285.321 2.40001C286.854 3.93334 287.621 5.76667 287.621 7.90001C287.621 10.0333 286.854 11.8667 285.321 13.4C283.788 14.9333 281.954 15.7 279.821 15.7ZM269.821 95.5C268.554 95.5 267.254 95.4 265.921 95.2C264.521 95.0667 263.421 94.8667 262.621 94.6V84.1C263.354 84.2333 264.088 84.3333 264.821 84.4C265.488 84.4667 266.254 84.5 267.121 84.5C269.188 84.5 270.688 84.0667 271.621 83.2C272.554 82.4 273.021 81.0667 273.021 79.2V21.9H286.721V80C286.721 84.9333 285.221 88.7333 282.221 91.4C279.288 94.1333 275.154 95.5 269.821 95.5Z" fill="white"/>
<path d="M304.235 15.7C302.102 15.7 300.268 14.9333 298.735 13.4C297.202 11.8667 296.435 10.0333 296.435 7.90001C296.435 5.76667 297.202 3.93334 298.735 2.40001C300.268 0.866673 302.102 0.100006 304.235 0.100006C306.368 0.100006 308.202 0.866673 309.735 2.40001C311.268 3.93334 312.035 5.76667 312.035 7.90001C312.035 10.0333 311.268 11.8667 309.735 13.4C308.202 14.9333 306.368 15.7 304.235 15.7ZM311.135 21.9V74H297.435V21.9H311.135Z" fill="white"/>
<path d="M347.349 63C349.683 63 351.849 62.5333 353.849 61.6C355.916 60.6667 357.883 59.2 359.749 57.2L367.949 65.7C365.283 68.6333 362.083 70.9333 358.349 72.6C354.616 74.2 350.749 75 346.749 75C342.949 75 339.349 74.3 335.949 72.9C332.616 71.5 329.716 69.6 327.249 67.2C324.849 64.8 322.949 61.9667 321.549 58.7C320.149 55.3667 319.449 51.8 319.449 48C319.449 44.2 320.149 40.6667 321.549 37.4C322.949 34.0667 324.849 31.2 327.249 28.8C329.716 26.3333 332.616 24.4 335.949 23C339.349 21.6 342.949 20.9 346.749 20.9C350.883 20.9 354.849 21.7333 358.649 23.4C362.449 25 365.683 27.2667 368.349 30.2L359.949 39.1C358.083 37.0333 356.083 35.4667 353.949 34.4C351.816 33.3333 349.516 32.8 347.049 32.8C343.116 32.8 339.783 34.2667 337.049 37.2C334.383 40.1333 333.049 43.7333 333.049 48C333.049 52.2667 334.416 55.8333 337.149 58.7C339.949 61.5667 343.349 63 347.349 63Z" fill="white"/>
<path d="M0.399994 74V21.9H14.1V25.8C15.9667 24.2 18.0333 23 20.3 22.2C22.5667 21.3333 25.0333 20.9 27.7 20.9C31.0333 20.9 34.0333 21.6 36.7 23C39.4333 24.3333 41.6667 26.2333 43.4 28.7C45.4667 26.1667 47.9667 24.2333 50.9 22.9C53.8333 21.5667 57.0667 20.9 60.6 20.9C66.4 20.9 71.1667 22.8333 74.9 26.7C78.6333 30.5667 80.5 35.5333 80.5 41.6V74H66.8V43.6C66.8 40.3333 65.9 37.7 64.1 35.7C62.3667 33.7 60 32.7 57 32.7C54.9333 32.7 53.0333 33.1667 51.3 34.1C49.6333 34.9667 48.2 36.2333 47 37.9C47.0667 38.5 47.1333 39.1 47.2 39.7C47.2667 40.3 47.3 40.9333 47.3 41.6V74H33.6V43.6C33.6 40.3333 32.7 37.7 30.9 35.7C29.1667 33.7 26.8 32.7 23.8 32.7C21.7333 32.7 19.9 33.1 18.3 33.9C16.7 34.7 15.3 35.8667 14.1 37.4V74H0.399994Z" fill="#F7F8F9"/>
<path d="M107.525 74.9C101.925 74.9 97.3583 73.4334 93.825 70.5C90.2917 67.5 88.525 63.6334 88.525 58.9C88.525 53.9667 90.425 50.1 94.225 47.3C98.025 44.5 103.258 43.1 109.925 43.1C112.058 43.1 114.192 43.2667 116.325 43.6C118.458 43.9333 120.558 44.4333 122.625 45.1V41.4C122.625 38.4 121.692 36.1333 119.825 34.6C117.958 33.0667 115.225 32.3 111.625 32.3C109.425 32.3 107.025 32.6667 104.425 33.4C101.892 34.0667 98.9917 35.1333 95.725 36.6L90.725 26.5C94.7917 24.6333 98.725 23.2333 102.525 22.3C106.392 21.3667 110.192 20.9 113.925 20.9C120.925 20.9 126.358 22.6 130.225 26C134.158 29.3333 136.125 34.0667 136.125 40.2V74H122.625V70.4C120.425 71.9334 118.092 73.0667 115.625 73.8C113.225 74.5334 110.525 74.9 107.525 74.9ZM101.625 58.6C101.625 60.6 102.492 62.2 104.225 63.4C105.958 64.5334 108.258 65.1 111.125 65.1C113.392 65.1 115.458 64.8334 117.325 64.3C119.258 63.7 121.025 62.8667 122.625 61.8V54C120.958 53.3333 119.192 52.8667 117.325 52.6C115.525 52.2667 113.625 52.1 111.625 52.1C108.492 52.1 106.025 52.7 104.225 53.9C102.492 55.0333 101.625 56.6 101.625 58.6Z" fill="#F7F8F9"/>
<path d="M146.494 74V21.9H160.194V27.6C161.86 25.3333 163.86 23.6333 166.194 22.5C168.594 21.3 171.227 20.7 174.094 20.7C175.427 20.7667 176.527 20.9 177.394 21.1C178.327 21.2333 179.127 21.5 179.794 21.9V33.9C178.794 33.4333 177.694 33.1 176.494 32.9C175.294 32.6333 174.06 32.5 172.794 32.5C170.127 32.5 167.66 33.1667 165.394 34.5C163.194 35.8333 161.46 37.7667 160.194 40.3V74H146.494Z" fill="#F7F8F9"/>
<path d="M182.277 48C182.277 44.2 182.977 40.6667 184.377 37.4C185.844 34.0667 187.811 31.2 190.277 28.8C192.811 26.3333 195.777 24.4 199.177 23C202.577 21.6 206.211 20.9 210.077 20.9C213.944 20.9 217.577 21.6 220.977 23C224.377 24.4 227.311 26.3333 229.777 28.8C232.311 31.2 234.277 34.0667 235.677 37.4C237.144 40.6667 237.877 44.2 237.877 48C237.877 51.8 237.144 55.3667 235.677 58.7C234.277 61.9667 232.311 64.8 229.777 67.2C227.311 69.6 224.377 71.5 220.977 72.9C217.577 74.3 213.944 75 210.077 75C206.211 75 202.577 74.3 199.177 72.9C195.777 71.5 192.811 69.6 190.277 67.2C187.811 64.8 185.844 61.9667 184.377 58.7C182.977 55.3667 182.277 51.8 182.277 48ZM210.077 63.1C214.077 63.1 217.477 61.6333 220.277 58.7C223.077 55.7667 224.477 52.2 224.477 48C224.477 43.7333 223.077 40.1333 220.277 37.2C217.477 34.2667 214.077 32.8 210.077 32.8C206.077 32.8 202.677 34.2667 199.877 37.2C197.077 40.1333 195.677 43.7333 195.677 48C195.677 52.2 197.077 55.7667 199.877 58.7C202.677 61.6333 206.077 63.1 210.077 63.1Z" fill="#F7F8F9"/>
<path fill-rule="evenodd" clip-rule="evenodd" d="M213.394 33.0196C215.992 33.6223 218.286 34.9665 220.277 37.0523C221.685 38.5269 222.739 40.1699 223.439 41.9815C224.139 40.1699 225.192 38.5269 226.6 37.0523C228.58 34.9782 230.86 33.6374 233.439 33.0298C232.39 31.4298 231.169 29.9706 229.777 28.6523C227.926 26.8011 225.812 25.2504 223.436 24C221.046 25.2504 218.901 26.8011 217 28.6523C215.648 29.9678 214.446 31.4236 213.394 33.0196ZM223.436 71.6107C225.812 70.3728 227.926 68.8533 229.777 67.0523C231.202 65.7026 232.447 64.2158 233.514 62.592C230.903 61.9928 228.599 60.6463 226.6 58.5523C225.192 57.0777 224.139 55.443 223.439 53.6483C222.739 55.443 221.685 57.0777 220.277 58.5523C218.267 60.6581 215.948 62.008 213.319 62.6021C214.389 64.222 215.616 65.7053 217 67.0523C218.901 68.8533 221.046 70.3728 223.436 71.6107Z" fill="black" fill-opacity="0.06"/>
</svg>
